<?xml version="1.0" encoding="UTF-8"?>
<svg width="2280px" height="970px" viewBox="0 0 2280 970" version="1.1" xmlns="http://www.w3.org/2000/svg" xmlns:xlink="http://www.w3.org/1999/xlink">
    <!-- Generator: Sketch 52.2 (67145) - http://www.bohemiancoding.com/sketch -->
    <title>idc-1</title>
    <desc>Created with Sketch.</desc>
    <g id="Page-1" stroke="none" stroke-width="1" fill="none" fill-rule="evenodd">
        <g id="idc-1">
            <path d="M115.168088,788.38874 C107.87908,788.38874 107.87908,786.949096 110.784308,784.00496 L155.996908,719.843533 C166.217083,706.718131 167.669696,703.812903 169.12231,703.812903 L169.12231,712.554525 L164.751499,782.565316 C163.298886,788.38874 163.298886,788.38874 157.462491,788.38874 L115.168088,788.38874 Z M201.222478,875.908714 C183.713296,874.46907 183.713296,874.46907 185.178879,839.450705 L192.467887,719.830563 C193.920501,692.114175 195.386084,677.52319 195.386084,673.165349 C195.386084,671.699766 192.467887,670.221212 191.015273,670.221212 C191.015273,670.221212 177.889871,678.988773 167.682666,680.428417 C166.230053,686.277781 161.846272,695.019403 147.255286,713.994169 L88.9043143,791.280998 C64.1061238,826.286393 43.6917139,852.563137 34.9371226,862.770342 C27.6481147,871.511963 20.3461371,875.895744 10.1389321,875.895744 L1.38434082,877.361327 C-0.0682728423,878.800971 -0.0682728423,883.184752 1.38434082,886.102949 C13.0571292,884.663305 24.7299176,884.663305 37.8553197,884.663305 C50.9807217,884.663305 61.2008965,884.663305 71.4081014,886.102949 C74.3262985,884.663305 74.3262985,878.813941 71.4081014,877.361327 L59.735313,875.895744 C53.8989188,874.4561 52.4463052,872.977547 52.4463052,871.511963 C52.4463052,868.593766 55.3645023,864.222955 67.0243209,846.713773 L91.8225114,810.255764 C97.6589056,801.488203 97.6589056,801.488203 107.866111,801.488203 L155.996908,801.488203 C163.285916,801.488203 163.285916,801.488203 163.285916,808.777211 L160.367719,851.084584 C158.902135,865.675569 157.436552,870.05935 155.983938,871.498994 C154.531325,872.964577 150.147544,875.882774 142.858536,875.882774 L132.651331,877.348358 C129.720164,878.788001 129.720164,884.637365 132.651331,886.089979 C142.858536,884.650335 155.983938,884.650335 172.027537,884.650335 C186.618523,884.650335 198.278342,884.650335 208.498516,886.089979 C211.416713,884.650335 212.869327,878.800971 209.95113,877.348358 L201.222478,875.908714 Z M268.315072,823.394136 L269.767686,824.859719 C293.100293,789.854324 326.653074,754.848928 351.451265,754.848928 C364.576667,754.848928 368.960447,762.137936 368.960447,772.358111 C368.960447,776.741891 367.494864,786.949096 364.589637,794.251074 C358.753242,810.281703 333.955052,861.330698 333.955052,864.235925 C332.489469,867.180062 332.489469,870.085289 333.955052,870.085289 C339.791446,870.085289 355.835045,859.878084 364.589637,849.670879 C370.426031,848.205296 370.426031,851.110523 370.426031,854.02872 C357.287659,873.003486 332.489469,889.034116 313.540642,889.034116 C310.622445,889.034116 306.251634,884.676275 306.251634,881.745108 C306.251634,878.826911 306.251634,875.921683 313.540642,859.878084 C320.82965,845.287099 332.489469,813.186931 339.791446,797.156301 C342.709643,791.306937 347.080454,781.099732 347.080454,775.263338 C347.080454,770.879558 347.080454,766.521717 342.709643,766.521717 C333.955052,766.521717 314.993256,782.552346 296.031459,804.445309 C278.522277,824.859719 265.396875,849.657909 246.435079,884.676275 C243.516881,887.594472 242.064268,889.034116 239.146071,889.034116 C236.227874,889.034116 227.486252,887.594472 230.391479,880.292494 C231.857063,875.908714 266.862458,785.470543 268.315072,781.099732 C269.767686,776.741891 269.767686,773.810724 266.849488,773.810724 C259.560481,773.810724 247.887692,779.660088 237.680487,789.867293 C234.76229,789.867293 233.309676,786.949096 233.309676,784.017929 C246.435079,767.9873 266.849488,754.861898 282.906057,754.861898 C290.195065,754.861898 294.565876,760.685322 291.660649,767.9873 L268.315072,823.394136 Z M475.429247,772.345141 C484.183839,772.345141 490.020233,776.728922 491.472847,782.552346 C487.089066,801.501172 472.51105,829.2435 447.71286,851.097553 C428.751064,868.606736 418.543859,871.511963 415.625661,871.511963 C412.707464,871.511963 409.789267,870.072319 409.789267,865.688539 C409.789267,843.795576 430.203677,801.501172 452.083671,783.99199 C462.303845,775.263338 466.674656,772.345141 475.429247,772.345141 Z M500.227438,767.96136 C498.761854,765.043163 494.391044,762.137936 492.93843,762.137936 C490.946602,760.307799 488.353913,759.269801 485.649422,759.219739 C476.894831,759.219739 468.140239,762.137936 455.027807,769.426944 C441.902405,776.715952 427.31142,788.37577 411.26782,810.255764 C390.853411,837.972151 383.551433,864.209986 383.551433,871.511963 C383.551433,880.279524 387.922244,889.021146 398.142418,889.021146 C412.720434,889.021146 446.273216,867.154122 469.605823,839.450705 L471.058437,839.450705 L460.851232,868.606736 C457.933035,875.895744 456.480421,878.813941 456.480421,880.279524 C456.480421,883.197721 459.398618,889.021146 466.687626,889.021146 C484.196808,889.021146 508.982029,871.511963 522.107431,854.01575 C522.107431,851.097553 520.654817,849.657909 517.73662,849.657909 C498.774824,865.688539 488.554649,870.072319 484.183839,870.072319 C481.265642,870.072319 479.813028,868.606736 481.265642,862.783312 C491.485816,835.066924 520.654817,765.056133 525.025628,753.370375 C523.573015,749.012534 514.805454,746.081367 508.982029,747.546951 L500.227438,767.96136 Z M564.414804,864.222955 C561.496607,871.511963 561.496607,874.4561 565.867418,874.4561 C573.156426,874.4561 587.747411,858.399531 603.79101,842.355932 C606.709207,842.355932 608.174791,843.795576 608.174791,846.713773 C599.4202,862.770342 578.99282,889.021146 551.289402,889.021146 C541.082197,889.021146 538.164,884.663305 538.164,878.813941 C538.164,874.4561 541.082197,868.606736 545.453008,852.576107 L599.4202,702.33435 C606.709207,680.441387 603.79101,677.53616 597.967586,674.617963 L592.131192,673.178319 C590.680358,671.498421 590.680358,669.008852 592.131192,667.328955 C597.967586,665.889311 618.381996,658.587333 634.425595,658.587333 L635.891178,660.026977 C631.507398,671.699766 628.602171,680.441387 616.929382,714.007139 L564.414804,864.222955 Z" id="Shape" fill="#2C5B8D"></path>
            <path d="M676.719998,808.80315 C676.719998,829.2435 676.719998,852.576107 672.349188,878.813941 L673.801801,878.813941 C684.009006,862.783312 694.216211,843.808546 701.518189,824.859719 C707.354583,805.884953 713.178007,773.784785 713.178007,765.056133 C714.630621,756.288572 719.014402,756.288572 721.932599,756.288572 C723.385212,756.288572 727.768993,757.754156 730.68719,759.232709 C732.139804,760.672353 733.605387,762.150906 733.605387,765.056133 C733.605387,772.345141 724.850796,813.186931 695.681795,861.317728 C678.172612,887.581502 666.512793,909.448526 640.261989,937.164913 C615.463799,964.90724 599.4202,969.265081 589.212995,969.265081 C577.540206,969.265081 571.703812,963.441657 571.703812,954.674096 C571.703812,947.398058 577.540206,941.548694 584.829214,941.548694 C587.747411,941.548694 592.118222,943.014277 593.583805,945.932474 C595.049389,948.850671 597.954616,951.755899 603.79101,951.755899 C606.709207,951.755899 613.998215,950.316255 621.300193,943.014277 C630.054784,937.164913 644.6328,916.750503 650.469194,896.323124 C654.852975,880.292494 657.758202,851.110523 657.758202,823.394136 C656.305588,788.38874 650.469194,776.728922 644.6328,776.728922 C637.343792,776.728922 631.507398,786.936127 625.671004,800.061529 C621.300193,801.501172 619.83461,798.595945 618.381996,795.677748 C625.671004,775.263338 640.261989,754.848928 656.305588,754.848928 C673.801801,754.848928 676.719998,786.936127 676.719998,808.80315 Z M819.659777,773.797755 C819.659777,778.181535 816.74158,782.565316 813.823383,782.565316 C812.370769,784.00496 809.452572,782.565316 807.986989,781.099732 C802.150595,775.276308 797.766814,770.892527 787.559609,770.892527 C778.817988,770.892527 774.434207,778.181535 774.434207,782.565316 C774.434207,789.854324 775.886821,795.690718 786.094026,811.747287 C793.383033,824.872689 799.219428,833.61431 797.753844,846.726743 C797.753844,855.494304 793.383033,867.167092 780.244662,877.374297 C772.955654,884.663305 759.830252,889.021146 748.157463,889.021146 C735.032061,889.021146 727.743053,878.813941 727.743053,871.511963 C727.743053,868.593766 729.195667,865.688539 732.113864,861.304758 C734.854645,859.865682 738.127674,859.865682 740.868455,861.304758 C745.252236,865.688539 755.459441,874.4561 764.201062,874.4561 C771.49007,874.4561 780.244662,867.167092 780.244662,856.946917 C780.244662,851.097553 775.873851,840.890348 767.11926,827.764946 C758.364668,814.639544 755.459441,804.432339 755.459441,798.582975 C755.459441,786.936127 761.295835,776.715952 775.873851,765.043163 C786.081056,757.754156 796.288261,754.835958 800.672041,754.835958 C812.370769,754.848928 819.659777,765.056133 819.659777,773.797755 Z M910.097948,765.056133 C915.934342,765.056133 917.386956,769.439914 917.386956,772.345141 C917.386956,775.250368 914.468758,783.99199 904.261553,794.238104 C892.601735,804.445309 882.38156,810.268734 860.501567,817.570711 C863.419764,808.80315 872.174355,794.238104 885.299757,779.647119 C896.959576,767.96136 905.714167,765.056133 910.097948,765.056133 Z M915.934342,754.848928 C907.179751,754.848928 894.054349,757.767125 876.545166,770.879558 C840.074187,797.143331 826.948785,835.066924 826.948785,855.481334 C826.948785,871.511963 834.237793,889.021146 854.665173,889.021146 C867.790575,889.021146 886.752371,883.197721 907.166781,859.865114 C907.166781,856.946917 905.714167,854.01575 902.79597,854.01575 C888.204985,867.167092 879.450393,872.990517 867.790575,872.990517 C859.035983,872.990517 851.746975,865.701509 851.746975,855.481334 C851.746975,842.355932 854.665173,832.148727 856.130756,826.299363 C904.261553,814.652514 937.814335,798.582975 937.814335,773.784785 C937.814335,766.521717 929.046774,754.848928 915.934342,754.848928 Z M1085.12492,775.263338 L1055.94295,858.399531 C1054.49034,864.222955 1055.94295,865.688539 1057.40854,865.688539 C1063.24493,865.688539 1085.12492,849.657909 1095.33213,837.972151 C1099.70294,837.972151 1101.16852,839.437735 1101.16852,843.795576 C1082.20673,870.05935 1051.57214,889.008176 1036.99413,889.008176 C1032.62332,889.008176 1028.23954,884.650335 1028.23954,880.266555 C1028.23954,875.882774 1029.70512,871.498994 1032.61035,862.757372 L1063.24493,775.237399 L1038.44674,775.237399 C1036.98116,772.319201 1038.44674,767.948391 1041.36494,766.495777 L1067.61574,762.111997 L1086.57754,730.011828 C1089.49574,728.546245 1096.78474,728.546245 1099.70294,731.477412 L1089.48277,763.55164 L1125.95374,763.55164 C1127.40636,766.495777 1125.95374,772.319201 1121.58293,775.224429 L1085.12492,775.224429 L1085.12492,775.263338 Z M1178.46832,702.33435 C1185.75733,681.91994 1187.23588,677.53616 1181.41246,673.178319 L1174.12345,668.794538 C1174.12345,667.328955 1174.12345,665.876341 1175.5631,665.876341 C1181.41246,662.932204 1203.27948,658.587333 1214.95227,658.587333 L1216.39192,660.026977 C1209.11588,677.53616 1198.88273,706.718131 1191.61966,724.214344 L1158.05391,819.010355 L1158.05391,820.475938 C1181.41246,788.37577 1198.88273,775.263338 1210.56849,767.96136 C1222.24128,759.219739 1233.9011,754.835958 1242.66866,754.835958 C1257.25964,754.835958 1261.61749,765.043163 1261.61749,776.728922 C1261.61749,798.595945 1248.49208,830.683143 1236.84523,851.097553 C1229.55623,861.304758 1223.69389,868.606736 1214.95227,875.895744 C1203.27948,887.568532 1194.53786,889.021146 1190.15408,889.021146 C1179.94688,889.021146 1178.48129,881.732138 1178.48129,880.279524 C1178.48129,874.4561 1182.86507,870.072319 1187.24885,870.072319 C1188.6885,870.072319 1190.16705,870.072319 1191.63263,871.511963 C1194.55083,872.977547 1198.90867,875.895744 1200.37426,875.895744 C1206.19768,875.895744 1209.14182,871.511963 1213.49966,859.865114 C1222.26722,839.450705 1238.29785,795.677748 1238.29785,778.168565 C1238.29785,772.345141 1235.37965,767.96136 1231.00884,767.96136 C1226.651,767.96136 1219.36199,772.345141 1213.49966,776.728922 C1198.90867,786.936127 1188.70147,797.143331 1171.19228,819.010355 C1155.16166,837.985121 1139.10509,868.606736 1130.36346,884.663305 C1128.89788,887.581502 1127.44527,889.021146 1124.52707,889.021146 C1121.60887,889.021146 1112.86725,887.581502 1115.77248,880.279524 L1178.46832,702.33435 Z M1357.89205,765.056133 C1365.18106,765.056133 1366.63367,769.439914 1366.63367,772.345141 C1366.63367,775.250368 1363.71547,783.99199 1353.50827,794.238104 C1340.38287,804.445309 1330.17566,810.268734 1308.29567,817.570711 C1312.67945,808.80315 1319.96846,794.238104 1333.09386,779.647119 C1344.74071,767.96136 1353.50827,765.056133 1357.89205,765.056133 Z M1365.18106,754.848928 C1354.94791,754.848928 1343.28809,757.767125 1325.79188,770.879558 C1289.3209,797.143331 1276.1955,835.066924 1276.1955,855.481334 C1276.1955,871.511963 1283.48451,889.021146 1302.45927,889.021146 C1317.02432,889.021146 1335.99909,883.197721 1356.4135,859.865114 C1356.4135,856.946917 1354.94791,854.01575 1352.02972,854.01575 C1337.46467,867.167092 1328.69711,872.990517 1317.02432,872.990517 C1308.2827,872.990517 1300.99369,865.701509 1300.99369,855.481334 C1300.99369,842.355932 1303.91189,832.148727 1305.37747,826.299363 C1353.50827,814.652514 1385.60844,798.582975 1385.60844,773.784785 C1385.59547,766.521717 1378.30646,754.848928 1365.18106,754.848928 Z M1541.67362,721.309116 C1551.88082,690.661562 1551.88082,686.303721 1534.38461,683.385524 L1528.53525,681.91994 C1525.61705,680.454357 1527.0956,676.096516 1530.00083,674.630932 L1547.51001,674.630932 C1553.34641,674.630932 1559.1828,676.096516 1566.48478,676.096516 L1627.74098,674.630932 C1648.15539,674.630932 1664.19899,676.096516 1674.43213,674.630932 C1671.488,680.454357 1664.19899,705.252547 1661.28079,716.938305 C1659.84115,718.377949 1653.99178,718.377949 1652.53917,716.938305 C1653.97881,699.429123 1655.45737,692.140115 1640.86638,687.756334 C1633.57737,686.316691 1623.3572,684.838137 1605.86098,684.838137 L1586.91216,684.838137 C1578.1446,684.838137 1578.1446,686.303721 1575.23937,696.510926 L1551.90676,765.056133 C1548.98857,772.345141 1550.44118,773.797755 1557.73019,773.797755 L1579.62315,773.797755 C1611.72332,773.797755 1617.54674,770.879558 1624.83575,757.767125 L1630.65918,747.55992 C1632.12476,746.094337 1639.42674,746.094337 1639.42674,749.025504 C1637.96115,754.848928 1632.13773,766.534686 1629.21953,778.181535 C1624.83575,789.854324 1621.93052,802.979726 1620.45197,810.281703 C1617.53377,813.1999 1613.16296,811.747287 1611.71035,810.281703 L1611.71035,798.608915 C1611.71035,788.40171 1604.42134,784.017929 1578.1446,784.017929 L1553.34641,784.017929 C1546.0574,784.017929 1544.60479,785.483513 1541.69956,792.78549 L1527.10857,839.476644 C1518.34101,868.632676 1516.90137,875.934653 1534.39758,875.934653 L1547.52298,877.400237 C1548.98857,880.318434 1547.52298,884.689244 1546.0574,886.141858 C1527.10857,884.702214 1515.43578,884.702214 1500.8448,884.702214 C1487.7194,884.702214 1476.07255,884.702214 1462.92121,886.141858 C1460.00301,883.223661 1460.00301,878.85285 1462.92121,877.400237 L1473.12841,875.934653 C1489.18498,874.495009 1492.10318,871.550873 1502.31038,839.476644 L1541.67362,721.309116 Z M1674.40619,856.959887 C1671.46206,864.235925 1672.94061,868.606736 1677.32439,868.606736 C1681.68223,868.606736 1694.83357,858.399531 1712.32978,842.368902 C1742.9514,813.186931 1760.46058,776.728922 1770.66779,757.767125 C1777.9568,756.301542 1785.23283,759.232709 1786.69842,762.150906 C1783.78022,770.892527 1761.90023,823.407105 1748.77482,861.317728 C1747.30924,865.701509 1745.85663,868.606736 1750.24041,868.606736 C1756.06383,868.606736 1773.57301,854.01575 1782.31464,843.808546 C1785.23283,843.808546 1788.164,845.274129 1788.164,848.192326 C1779.39644,864.222955 1747.30924,889.021146 1729.826,889.021146 C1725.44222,889.021146 1719.59285,883.197721 1722.53699,877.374297 L1744.40401,820.475938 L1744.40401,819.010355 C1719.60582,848.192326 1678.76403,889.021146 1661.26782,889.021146 C1646.70277,889.021146 1645.23719,875.895744 1651.06062,861.304758 L1681.68223,785.457573 C1684.62637,779.634149 1684.62637,775.250368 1681.68223,775.250368 C1675.85881,775.250368 1658.34962,789.841354 1651.06062,797.143331 C1646.70277,798.582975 1643.77161,795.677748 1645.23719,792.759551 C1653.97881,779.634149 1686.06601,754.835958 1702.13555,754.835958 C1706.49339,754.835958 1713.7824,759.219739 1712.34275,765.043163 L1674.40619,856.959887 Z M1865.45083,775.263338 L1834.82921,858.399531 C1833.38957,864.222955 1834.82921,865.688539 1837.74741,865.688539 C1842.13119,865.688539 1864.01119,849.657909 1875.671,837.972151 C1878.61514,837.972151 1881.52037,839.437735 1880.05478,843.795576 C1861.10596,870.05935 1830.4584,889.008176 1817.333,889.008176 C1811.50958,889.008176 1807.1258,884.650335 1807.1258,880.266555 C1807.1258,875.882774 1808.59138,871.498994 1812.94922,862.757372 L1843.59678,775.237399 L1817.333,775.237399 C1817.333,772.319201 1817.333,767.948391 1821.71678,766.495777 L1847.95462,762.111997 L1866.92938,730.011828 C1869.84758,728.546245 1875.671,728.546245 1878.60217,731.477412 L1869.83461,763.55164 L1904.84,763.55164 C1907.7582,766.495777 1906.30559,772.319201 1901.92181,775.224429 L1865.45083,775.224429 L1865.45083,775.263338 Z M1932.55639,856.959887 C1929.6382,864.235925 1932.55639,868.606736 1935.47459,868.606736 C1939.85837,868.606736 1954.44936,858.399531 1970.47999,842.368902 C2001.1016,813.186931 2018.61078,776.728922 2028.81799,757.767125 C2036.107,756.301542 2044.87456,759.232709 2044.87456,762.150906 C2041.95636,770.892527 2020.07637,823.407105 2006.95096,861.317728 C2005.48538,865.701509 2004.00683,868.606736 2008.39061,868.606736 C2014.23997,868.606736 2031.74915,854.01575 2040.49078,843.808546 C2043.40897,843.808546 2046.3142,845.274129 2046.3142,848.192326 C2037.57258,864.222955 2005.48538,889.021146 1987.9762,889.021146 C1983.59242,889.021146 1977.76899,883.197721 1980.68719,877.374297 L2002.58015,820.475938 L2002.58015,819.010355 C1977.78196,848.192326 1936.94017,889.021146 1919.44396,889.021146 C1906.31856,889.021146 1903.38739,875.895744 1909.23676,861.304758 L1939.85837,785.457573 C1942.77657,779.634149 1942.77657,775.250368 1939.85837,775.250368 C1934.03495,775.250368 1916.52576,789.841354 1909.23676,797.143331 C1904.85297,798.582975 1903.38739,795.677748 1903.38739,792.759551 C1912.15495,779.634149 1944.24215,754.835958 1960.28575,754.835958 C1964.66953,754.835958 1971.95854,759.219739 1970.49295,765.043163 L1932.55639,856.959887 Z M2117.81651,785.470543 L2104.69111,824.859719 L2106.13076,824.859719 C2116.33796,807.350536 2132.39453,782.552346 2141.13615,772.345141 C2148.42516,762.137936 2155.72714,754.835958 2164.46876,754.835958 C2176.14155,754.835958 2177.59416,766.508747 2177.59416,770.866588 C2177.59416,775.250368 2174.67596,783.99199 2170.31812,789.841354 C2167.37399,794.225134 2161.55056,794.225134 2160.11092,788.37577 C2158.64533,779.634149 2157.16678,775.250368 2152.82191,775.250368 C2149.87777,775.250368 2146.97255,779.634149 2142.6147,785.457573 C2122.20029,810.255764 2103.22553,848.179356 2085.71635,884.650335 C2084.25076,887.568532 2082.79815,889.008176 2079.89292,889.008176 C2076.98769,889.008176 2066.74158,887.568532 2069.68572,880.266555 C2072.60391,868.593766 2094.48391,811.721347 2103.22553,781.073793 C2104.69111,776.715952 2103.22553,773.784785 2100.30733,773.784785 C2091.53977,773.784785 2082.79815,782.552346 2076.97472,791.293968 C2074.03059,791.293968 2071.12536,789.854324 2071.12536,785.470543 C2082.79815,767.96136 2094.48391,754.848928 2110.51454,754.848928 C2128.02372,754.848928 2120.72174,776.728922 2117.81651,785.470543 Z M2251.98873,765.056133 C2257.81216,765.056133 2259.27774,769.439914 2259.27774,772.345141 C2259.27774,775.250368 2256.35954,783.99199 2246.15234,794.238104 C2234.47955,804.445309 2224.25937,810.268734 2202.37938,817.570711 C2205.29758,808.80315 2214.05217,794.238104 2225.73793,779.647119 C2238.8763,767.96136 2247.60495,765.056133 2251.98873,765.056133 Z M2257.81216,754.848928 C2249.07053,754.848928 2235.94513,757.767125 2218.44892,770.879558 C2181.97794,797.143331 2168.85254,835.066924 2168.85254,855.481334 C2168.85254,871.511963 2176.14155,889.021146 2196.56893,889.021146 C2209.69433,889.021146 2228.66909,883.197721 2249.0835,859.865114 C2249.0835,856.946917 2247.61792,854.01575 2244.69972,854.01575 C2230.10874,867.167092 2221.36712,872.990517 2209.69433,872.990517 C2200.95271,872.990517 2193.6637,865.701509 2193.6637,855.481334 C2193.6637,842.355932 2196.5819,832.148727 2198.04748,826.299363 C2246.17828,814.652514 2279.71809,798.582975 2279.71809,773.784785 C2279.70512,766.521717 2270.9635,754.848928 2257.81216,754.848928 Z" id="Shape" fill="#2C5B8D"></path>
            <path d="M619.83461,57.6332773 C571.703812,21.1622984 513.35284,0.747888522 449.178443,0.747888522 C385.004047,0.747888522 326.653074,21.1622984 278.522277,57.6332773 L619.83461,57.6332773 Z M726.303409,231.207641 C723.385212,212.245844 716.096205,194.736662 710.25981,178.693063 L186.618523,177.240449 C179.329515,194.749632 174.945735,212.245844 170.574924,231.207641 L726.303409,231.207641 Z M259.560481,490.836394 C309.156862,536.048995 376.249455,565.230966 449.178443,565.230966 C522.107431,565.230966 589.200025,537.514578 640.249019,490.836394 L259.560481,490.836394 Z M653.374422,477.710992 C669.418021,460.20181 689.8454,436.869203 702.970802,410.618398 L192.467887,410.618398 C209.977069,435.403619 226.020669,457.296582 244.982465,477.710992 L653.374422,477.710992 Z M710.27278,390.191019 C719.014402,371.229222 724.850796,359.556434 729.234576,337.676441 L172.053477,337.676441 C174.971674,356.638237 180.808068,374.14742 188.097076,390.191019 L710.27278,390.191019 Z M730.68719,309.973023 L730.68719,282.256635 L730.68719,257.458445 L167.669696,257.458445 C167.669696,273.502044 166.217083,272.04943 166.217083,282.256635 C166.217083,289.545643 166.217083,304.136629 167.669696,309.973023 L730.68719,309.973023 Z M694.216211,139.316857 C684.009006,121.807674 672.336218,105.764075 659.210816,92.6386727 L239.133101,92.6386727 C227.473282,105.764075 214.33491,121.807674 204.127705,139.316857 L694.216211,139.316857 Z" id="Shape" fill="#2C5B8D"></path>
            <path d="M538.15103,21.1752682 L870.708772,21.1752682 M650.456224,97.0224533 L864.872378,97.0224533 M701.518189,183.076843 L866.337961,183.076843 M726.303409,263.307809 L867.790575,263.307809 M721.932599,343.512835 L867.790575,343.512835 M689.8454,414.989209 L867.790575,414.989209 M624.20542,496.659819 L870.708772,496.659819 M253.724086,471.874598 L18.8935234,471.874598 M176.424288,305.589242 L20.3461371,305.589242 M177.876901,225.371247 L23.2643342,225.371247 M214.34788,133.480462 L23.2643342,133.480462 M300.40227,53.2624665 L24.7299176,53.2624665" id="Shape" stroke="#2C5B8D" stroke-width="9.72732366"></path>
            <path d="M1020.95053,76.5950736 C1019.48494,19.7096848 956.763162,35.7662537 956.763162,18.2570711 C956.763162,10.9680633 958.228745,9.50247982 964.05217,9.50247982 C993.234141,9.50247982 1022.40314,12.4206769 1051.57214,12.4206769 C1074.91772,12.4206769 1099.70294,9.50247982 1124.50113,9.50247982 C1137.62653,9.50247982 1139.09212,10.9680633 1139.09212,16.7914877 C1139.09212,35.7532839 1082.20673,18.2570711 1082.20673,76.5950736 L1082.20673,499.603955 C1082.20673,553.558177 1152.21752,536.061964 1152.21752,559.381602 C1152.21752,565.230966 1150.75194,566.670609 1137.62653,566.670609 C1118.66474,566.670609 1085.12492,563.752412 1051.57214,563.752412 C1003.44135,563.752412 985.932163,566.670609 975.724958,566.670609 C961.133972,566.670609 959.681359,563.752412 959.681359,555.023761 C959.681359,533.130797 1020.95053,557.941958 1020.95053,480.629189 L1020.95053,76.5950736 Z M1245.57389,94.1042562 C1245.57389,12.4206769 1179.93391,38.6844508 1179.93391,16.8044574 C1179.93391,10.9680633 1187.22291,9.51544958 1191.60669,9.51544958 C1216.37895,9.51544958 1238.27191,12.4336467 1261.59155,12.4336467 C1314.10612,12.4336467 1365.16809,9.51544958 1433.7133,9.51544958 C1572.28226,9.51544958 1709.37268,114.531636 1709.37268,260.389612 C1709.37268,441.252983 1624.79684,566.696549 1405.99691,566.696549 C1365.16809,566.696549 1325.76594,563.778352 1284.93712,563.778352 C1277.64811,563.778352 1201.80093,566.696549 1197.41715,566.696549 C1190.12814,566.696549 1188.64959,563.778352 1188.64959,559.407541 C1188.64959,541.898359 1245.54795,560.873125 1245.54795,486.478553 L1245.54795,94.1042562 L1245.57389,94.1042562 Z M1306.81712,452.912802 C1306.81712,466.051174 1305.37747,503.961796 1312.66648,509.81116 C1337.46467,536.048995 1397.24232,546.269169 1433.72627,546.269169 C1544.57885,546.269169 1651.04765,486.465583 1651.04765,304.149598 C1651.04765,129.122621 1534.37164,29.9298595 1385.59547,28.4772458 C1309.74828,28.4772458 1306.81712,41.6026479 1306.81712,78.060657 L1306.81712,452.912802 Z M2014.25294,2.21347195 C2163.02911,2.21347195 2203.85793,63.4826413 2227.19054,63.4826413 C2233.01397,63.4826413 2237.39775,54.72805 2246.16531,54.72805 C2254.90693,54.72805 2254.90693,67.853452 2256.37251,118.915416 C2257.81216,161.20982 2265.11413,186.00801 2251.98873,186.00801 C2243.24711,186.00801 2237.39775,165.5936 2234.47955,161.20982 C2184.88317,76.6080433 2129.45039,25.5590487 2027.36537,25.5590487 C1874.20542,25.5590487 1799.81085,127.657038 1799.81085,273.527984 C1799.81085,410.631368 1878.5892,547.747723 2030.28357,547.747723 C2152.80894,547.747723 2230.09577,468.969371 2243.24711,433.963975 C2244.68675,428.127581 2249.07053,423.75677 2253.45432,423.75677 C2257.81216,422.304157 2262.19594,428.127581 2260.73035,431.045778 L2243.24711,509.82413 C2241.78153,514.181971 2186.34875,572.545913 2008.40358,572.545913 C1846.51497,572.545913 1731.27861,461.680363 1731.27861,298.313204 C1731.27861,134.946046 1847.95462,2.21347195 2014.25294,2.21347195 Z" id="Shape" fill="#2C5B8D"></path>
            <path d="M196.838698,385.820208 L18.8935234,385.820208" id="Path" stroke="#2C5B8D" stroke-width="9.72732366"></path>
        </g>
    </g>
</svg>